<svg width="16" height="16" viewBox="0 0 16 16" fill="none" xmlns="http://www.w3.org/2000/svg">
<path fill-rule="evenodd" clip-rule="evenodd" d="M4.16671 8.66671C6.87937 8.66671 7.00004 9.58671 7.00004 11.5C7.00004 12.4587 7.00004 13.1407 6.59737 13.64C6.13404 14.2154 5.29071 14.3334 4.16671 14.3334C3.04271 14.3334 2.19937 14.2154 1.73604 13.64C1.33337 13.1407 1.33337 12.4594 1.33337 11.5167L1.83337 11.5H1.33337C1.33337 9.58671 1.45404 8.66671 4.16671 8.66671ZM11.5 8.66671C14.2127 8.66671 14.3334 9.58671 14.3334 11.5C14.3334 12.4587 14.3334 13.1407 13.9307 13.64C13.4674 14.2154 12.624 14.3334 11.5 14.3334C10.376 14.3334 9.53271 14.2154 9.06937 13.64C8.66671 13.1407 8.66671 12.4594 8.66671 11.5167L9.16671 11.5H8.66671C8.66671 9.58671 8.78737 8.66671 11.5 8.66671ZM4.30415 9.66701L4.16671 9.66671C2.42739 9.66671 2.3382 9.79152 2.33362 11.2514L2.3339 11.8202C2.33706 12.4008 2.35918 12.8202 2.51404 13.0134C2.69071 13.232 3.21537 13.3334 4.16671 13.3334C5.11804 13.3334 5.64271 13.2314 5.81937 13.0127C6.00004 12.788 6.00004 12.2547 6.00004 11.516C6.00004 9.84924 6.00004 9.67485 4.30415 9.66701ZM11.6375 9.66701L11.5 9.66671C9.76072 9.66671 9.67153 9.79152 9.66695 11.2514L9.66723 11.8202C9.67039 12.4008 9.69252 12.8202 9.84737 13.0134C10.024 13.232 10.5487 13.3334 11.5 13.3334C12.4514 13.3334 12.976 13.2314 13.1527 13.0127C13.3334 12.788 13.3334 12.2547 13.3334 11.516C13.3334 9.84924 13.3334 9.67485 11.6375 9.66701ZM4.16671 1.33337C6.87937 1.33337 7.00004 2.25337 7.00004 4.16671C7.00004 5.12537 7.00004 5.80737 6.59737 6.30671C6.13404 6.88204 5.29071 7.00004 4.16671 7.00004C3.04271 7.00004 2.19937 6.88204 1.73604 6.30671C1.33337 5.80737 1.33337 5.12604 1.33337 4.18337L1.83337 4.16671H1.33337C1.33337 2.25337 1.45404 1.33337 4.16671 1.33337ZM11.5 1.33337C14.2127 1.33337 14.3334 2.25337 14.3334 4.16671C14.3334 5.12537 14.3334 5.80737 13.9307 6.30671C13.4674 6.88204 12.624 7.00004 11.5 7.00004C10.376 7.00004 9.53271 6.88204 9.06937 6.30671C8.66671 5.80737 8.66671 5.12604 8.66671 4.18337L9.16671 4.16671H8.66671C8.66671 2.25337 8.78737 1.33337 11.5 1.33337ZM4.30415 2.33367L4.16671 2.33337C2.42739 2.33337 2.3382 2.45818 2.33362 3.91807L2.3339 4.48683C2.33706 5.06747 2.35918 5.4869 2.51404 5.68004C2.69071 5.89871 3.21537 6.00004 4.16671 6.00004C5.11804 6.00004 5.64271 5.89804 5.81937 5.67937C6.00004 5.45471 6.00004 4.92137 6.00004 4.18271C6.00004 2.5159 6.00004 2.34152 4.30415 2.33367ZM11.6375 2.33367L11.5 2.33337C9.76072 2.33337 9.67153 2.45818 9.66695 3.91807L9.66723 4.48683C9.67039 5.06747 9.69252 5.4869 9.84737 5.68004C10.024 5.89871 10.5487 6.00004 11.5 6.00004C12.4514 6.00004 12.976 5.89804 13.1527 5.67937C13.3334 5.45471 13.3334 4.92137 13.3334 4.18271C13.3334 2.5159 13.3334 2.34152 11.6375 2.33367Z" fill="#0E886B"/>
</svg>
