   <svg
            id="menu-btn"
            width="53"
            height="33"
            viewBox="0 0 43 23"
            fill="none"
            xmlns="http://www.w3.org/2000/svg"
          >
            <line y1="1.5" x2="43" y2="1.5" stroke="#fff" stroke-width="4" />
            <line y1="11.5" x2="28" y2="11.5" stroke="#fff" stroke-width="4" />
            <line y1="21.5" x2="16" y2="21.5" stroke="#fff" stroke-width="4" />
          </svg>